[
  "hubot-diagnostics",
  "hubot-help",
  "hubot-google-images",
  "hubot-google-translate",
  "hubot-maps",
  "hubot-redis-brain",
  "hubot-rules",
  "hubot-shipit",
  "hubot-google-hangouts",
  "hubot-business-cat",
  "hubot-standup-alarm",
  "hubot-tell"
]
